-- Merging decision tree log ---
manifest
ADDED from /Users/Sheetal/AndroidStudioProjects/exoplayer/ExoPlayer/library/ui/src/main/AndroidManifest.xml:17:1-55
INJECTED from /Users/Sheetal/AndroidStudioProjects/exoplayer/ExoPlayer/library/ui/src/main/AndroidManifest.xml:17:1-55
INJECTED from /Users/Sheetal/AndroidStudioProjects/exoplayer/ExoPlayer/library/ui/src/main/AndroidManifest.xml:17:1-55
	package
		ADDED from /Users/Sheetal/AndroidStudioProjects/exoplayer/ExoPlayer/library/ui/src/main/AndroidManifest.xml:17:11-53
		INJECTED from /Users/Sheetal/AndroidStudioProjects/exoplayer/ExoPlayer/library/ui/src/main/AndroidManifest.xml
		INJECTED from /Users/Sheetal/AndroidStudioProjects/exoplayer/ExoPlayer/library/ui/src/main/AndroidManifest.xml
	xmlns:android
		ADDED from /Users/Sheetal/AndroidStudioProjects/exoplayer/ExoPlayer/library/ui/src/main/AndroidManifest.xml:17:1-55
uses-sdk
INJECTED from /Users/Sheetal/AndroidStudioProjects/exoplayer/ExoPlayer/library/ui/src/main/AndroidManifest.xml reason: use-sdk injection requested
INJECTED from /Users/Sheetal/AndroidStudioProjects/exoplayer/ExoPlayer/library/ui/src/main/AndroidManifest.xml
INJECTED from /Users/Sheetal/AndroidStudioProjects/exoplayer/ExoPlayer/library/ui/src/main/AndroidManifest.xml
INJECTED from /Users/Sheetal/AndroidStudioProjects/exoplayer/ExoPlayer/library/ui/src/main/AndroidManifest.xml
INJECTED from /Users/Sheetal/AndroidStudioProjects/exoplayer/ExoPlayer/library/ui/src/main/AndroidManifest.xml
	android:targetSdkVersion
		INJECTED from /Users/Sheetal/AndroidStudioProjects/exoplayer/ExoPlayer/library/ui/src/main/AndroidManifest.xml
		ADDED from /Users/Sheetal/AndroidStudioProjects/exoplayer/ExoPlayer/library/ui/src/main/AndroidManifest.xml
		INJECTED from /Users/Sheetal/AndroidStudioProjects/exoplayer/ExoPlayer/library/ui/src/main/AndroidManifest.xml
	android:minSdkVersion
		INJECTED from /Users/Sheetal/AndroidStudioProjects/exoplayer/ExoPlayer/library/ui/src/main/AndroidManifest.xml
		ADDED from /Users/Sheetal/AndroidStudioProjects/exoplayer/ExoPlayer/library/ui/src/main/AndroidManifest.xml
		INJECTED from /Users/Sheetal/AndroidStudioProjects/exoplayer/ExoPlayer/library/ui/src/main/AndroidManifest.xml
